module banching

go 1.20

require (
	github.com/brianvoe/gofakeit/v6 v6.20.2 // indirect
	github.com/davecgh/go-spew v1.1.1 // indirect
	github.com/pmezard/go-difflib v1.0.0 // indirect
	github.com/stretchr/objx v0.5.0 // indirect
	github.com/stretchr/testify v1.8.2 // indirect
	gopkg.in/yaml.v3 v3.0.1 // indirect
)
